Reaction_id,Reaction_Stoichiometric,Reaction_Dynamics
R01786,GLCptspp,vPTS
R02740,PGI,vPGI
R04779,PFK,vPFK
R01070,FBA,vALDO
R01015,TPI,vTIS
R01061,GAPD,vGAPDH
R01512,PGK,vPGK
R01518,PGM,vrpGluMu
R00658,ENO,vENO
R00200,PYK,vPK
R02736,G6PDH2r,vG6PDH
R02035,G6PDH2r,vG6PDH
R01528,GND,vPGDH
R01529,RPE,vRu5P
R01056,RPI,vR5PI
R01641,TKT1,vTKA
R01827,TALA,vTA
R01830,TKT2,vTKB
